<svg xmlns="http://www.w3.org/2000/svg" width="28" height="31" viewBox="0 0 28 31">
  <text id="Hồ_sơ_khách_hàng" data-name="Hồ sơ khách hàng" transform="translate(0 27)" fill="#ff920c" font-size="31" font-family="FontAwesome5Free-Solid, 'Font Awesome 5 Free'"><tspan x="0" y="0">long-arrow-alt-right</tspan></text>
</svg>
