<svg xmlns="http://www.w3.org/2000/svg" width="20.07" height="19.898" viewBox="0 0 20.07 19.898">
  <g id="notification" transform="translate(0 -1.081)">
    <path id="Path_522" data-name="Path 522" d="M19.594,14.241H17.542V10.5A7.446,7.446,0,0,0,10.562,3.08V1.557a.476.476,0,1,0-.952,0V3.074A7.446,7.446,0,0,0,2.528,10.5v2.431a.476.476,0,1,0,.952,0V10.5A6.493,6.493,0,0,1,9.965,4.017h.141A6.493,6.493,0,0,1,16.591,10.5v3.739H.476A.476.476,0,0,0,0,14.717v2.759a.476.476,0,0,0,.476.476H19.594a.476.476,0,0,0,.476-.476V14.717A.476.476,0,0,0,19.594,14.241ZM19.118,17H.952V15.193H19.118Z" fill="#2f80ed"/>
    <path id="Path_523" data-name="Path 523" d="M102.808,218.571a.476.476,0,0,0-.476.476,1.224,1.224,0,0,1-1.223,1.223h-.034a1.224,1.224,0,0,1-1.223-1.223.476.476,0,0,0-.952,0,2.177,2.177,0,0,0,2.174,2.175h.034a2.177,2.177,0,0,0,2.175-2.175A.476.476,0,0,0,102.808,218.571Z" transform="translate(-91.057 -200.242)" fill="#2f80ed"/>
  </g>
</svg>
