<svg xmlns="http://www.w3.org/2000/svg" width="23.568" height="23.555" viewBox="0 0 23.568 23.555">
  <path id="user" d="M23.566,11.783a11.783,11.783,0,0,0-19.939-8.5.7.7,0,0,0,.967,1.008,10.387,10.387,0,1,1-.225,14.768c.012-.05.024-.1.037-.149s.019-.079.03-.118c.016-.06.035-.118.053-.177.011-.035.02-.07.032-.1.022-.068.046-.134.069-.2.009-.025.017-.051.026-.076q.1-.274.226-.536c.012-.026.026-.051.039-.077.03-.061.059-.121.091-.18l.051-.093c.029-.053.058-.106.088-.158.019-.033.04-.066.06-.1s.059-.1.089-.145l.067-.1.092-.136c.031-.045.049-.067.073-.1s.063-.086.1-.129.052-.066.078-.1.066-.082.1-.123.055-.064.083-.1.068-.078.1-.117l.088-.094c.036-.037.071-.075.107-.111l.092-.09.112-.106.1-.087.115-.1.1-.083.119-.1.1-.079.123-.09.108-.075.126-.084.111-.071.13-.079L7.6,14.73l.133-.073.117-.062.136-.068.12-.057.14-.062.122-.052.143-.056.124-.047.147-.05.12-.043.151-.045.126-.036.155-.039.126-.03c.053-.012.106-.022.16-.032l.126-.025c.055-.01.111-.018.166-.026l.123-.019c.058-.008.117-.014.176-.02l.117-.013c.065-.006.131-.009.2-.013l.1-.006q.149-.007.3-.007h1.719a6.709,6.709,0,0,1,5.2,2.455.7.7,0,0,0,1.078-.888,8.106,8.106,0,0,0-4.179-2.69,4.461,4.461,0,1,0-5.909,0l-.069.018q-.144.04-.285.084l-.035.01q-.159.051-.314.108l-.1.037-.213.084-.116.05-.188.083-.121.057-.178.089-.119.062q-.089.047-.176.1l-.113.064c-.061.036-.122.073-.182.111l-.1.061c-.075.048-.149.1-.222.148l-.051.034q-.134.094-.264.194l-.074.059c-.061.048-.122.1-.182.146l-.094.08c-.052.044-.1.089-.154.135l-.1.09-.143.136-.1.1Q5.072,14.932,5,15l-.09.1c-.047.051-.093.1-.139.157l-.079.091c-.054.064-.107.13-.158.2L4.5,15.6q-.1.13-.2.264l-.05.072c-.046.066-.092.133-.136.2-.022.034-.044.069-.066.1-.037.059-.074.118-.11.178-.023.038-.045.077-.067.116l-.1.175-.064.121q-.046.089-.09.18c-.02.041-.04.081-.059.122-.03.063-.058.128-.086.192-.017.039-.034.077-.05.116q-.046.113-.09.228c-.011.029-.023.057-.034.086v.013a10.356,10.356,0,0,1-1.9-5.988.7.7,0,0,0-1.4,0,11.782,11.782,0,0,0,20.47,7.959h0a11.75,11.75,0,0,0,3.1-7.951ZM11.783,6.325A3.065,3.065,0,1,1,8.718,9.39a3.065,3.065,0,0,1,3.065-3.065Z" transform="translate(0.002 -0.004)" fill="#282364"/>
</svg>
