{
    "name": "AppCoffeeProduct",
    "alias": "appcoffeeproduct",
    "description": "",
    "keywords": [],
    "order": 0,
    "providers": [
        "Modules\\AppCoffeeProduct\\Providers\\AppCoffeeProductServiceProvider"
    ],
    "aliases": {},
    "files": [],
    "requires": []
}
