{
    "name": "JdesClientSay",
    "alias": "jdesclientsay",
    "description": "",
    "keywords": [],
    "order": 0,
    "providers": [
        "Modules\\JdesClientSay\\Providers\\JdesClientSayServiceProvider"
    ],
    "aliases": {},
    "files": [],
    "requires": []
}
