<svg xmlns="http://www.w3.org/2000/svg" width="59.964" height="51.56" viewBox="0 0 59.964 51.56">
  <g id="Group_1123" data-name="Group 1123" transform="translate(-10627.359 -1789.381)">
    <path id="Path_561" data-name="Path 561" d="M10638.372,1790.631h40.039l7.661,16.559v32.5h-57.464v-32.5Z" transform="translate(0.001 0)" fill="none" stroke="#8a8a8a" stroke-width="2.5"/>
    <path id="Path_562" data-name="Path 562" d="M10628.608,1825.14h20.571" transform="translate(36.786 -17.921)" fill="none" stroke="#8a8a8a" stroke-width="2.5"/>
    <path id="Path_564" data-name="Path 564" d="M10628.608,1825.14h20.479" transform="translate(0.001 -17.921)" fill="none" stroke="#8a8a8a" stroke-width="2.5"/>
    <path id="Path_563" data-name="Path 563" d="M10671.212,1790.631v34.16l8.117-9.287,8.188,8.995v-33.867" transform="translate(-22.124 0)" fill="none" stroke="#8a8a8a" stroke-width="2.5"/>
  </g>
</svg>
