{
    "name": "AppCoffeeDashboard",
    "alias": "appcoffeedashboard",
    "description": "",
    "keywords": [],
    "order": 0,
    "providers": [
        "Modules\\AppCoffeeDashboard\\Providers\\AppCoffeeDashboardServiceProvider"
    ],
    "aliases": {},
    "files": [],
    "requires": []
}
