<svg xmlns="http://www.w3.org/2000/svg" width="18" height="22.528" viewBox="0 0 18 22.528">
  <path id="Path_521" data-name="Path 521" d="M66.55,19.525l-1.3-14.61a.555.555,0,0,0-.56-.508H61.962a4.411,4.411,0,0,0-8.823,0H50.406a.562.562,0,0,0-.56.508l-1.3,14.61v.051a3.165,3.165,0,0,0,3.334,2.952H63.216a3.165,3.165,0,0,0,3.334-2.952Zm-9-18.406a3.3,3.3,0,0,1,3.292,3.288H54.258A3.3,3.3,0,0,1,57.55,1.119ZM63.216,21.4H51.884A2.057,2.057,0,0,1,49.669,19.6l1.25-14.069h2.22V7.489a.56.56,0,0,0,1.119,0V5.526h6.585V7.489a.56.56,0,1,0,1.119,0V5.526h2.22L65.431,19.6A2.057,2.057,0,0,1,63.216,21.4Z" transform="translate(-48.55 0)" fill="#282364"/>
</svg>
