{
    "name": "ThemeTiengAnhAdmin",
    "alias": "themetienganhadmin",
    "description": "",
    "keywords": [],
    "order": 0,
    "providers": [
        "Modules\\ThemeTiengAnhAdmin\\Providers\\ThemeTiengAnhAdminServiceProvider"
    ],
    "aliases": {},
    "files": [],
    "requires": []
}
