{
    "name": "CardHistoryCard2",
    "alias": "cardhistorycard2",
    "description": "",
    "keywords": [],
    "order": 0,
    "providers": [
        "Modules\\CardHistoryCard2\\Providers\\CardHistoryCard2ServiceProvider"
    ],
    "aliases": {},
    "files": [],
    "requires": []
}
