{
    "name": "RaoVatProduct",
    "alias": "raovatproduct",
    "description": "",
    "keywords": [],
    "order": 0,
    "providers": [
        "Modules\\RaoVatProduct\\Providers\\RaoVatProductServiceProvider"
    ],
    "aliases": {},
    "files": [],
    "requires": []
}
