<svg xmlns="http://www.w3.org/2000/svg" width="72.546" height="56.05" viewBox="0 0 72.546 56.05">
  <g id="Group_1122" data-name="Group 1122" transform="translate(-6963.732 611.797)">
    <path id="Path_559" data-name="Path 559" d="M7479.982,509.215h44.432V474.453h-44.432v46a1.58,1.58,0,0,0,1.7,1.568h66.125s2.222.261,2.222-1.568V508.561l-4.574-4.312-6.8-13.068s0-1.176-2.745-1.045-11.481,0-11.481,0" transform="translate(-515 -1085)" fill="none" stroke="#ff920c" stroke-linejoin="round" stroke-width="2.5"/>
    <path id="Path_560" data-name="Path 560" d="M7706.854,565.293h-9.378V573.7l13.671.014" transform="translate(-681.016 -1155.054)" fill="none" stroke="#ff920c" stroke-linejoin="round" stroke-width="2.5"/>
    <g id="Ellipse_91" data-name="Ellipse 91" transform="translate(6972 -569.747)" fill="#fff" stroke="#ff920c" stroke-width="2.5">
      <ellipse cx="7.5" cy="7" rx="7.5" ry="7" stroke="none"/>
      <ellipse cx="7.5" cy="7" rx="6.25" ry="5.75" fill="none"/>
    </g>
    <g id="Ellipse_92" data-name="Ellipse 92" transform="translate(7016 -569.747)" fill="#fff" stroke="#ff920c" stroke-width="2.5">
      <ellipse cx="7.5" cy="7" rx="7.5" ry="7" stroke="none"/>
      <ellipse cx="7.5" cy="7" rx="6.25" ry="5.75" fill="none"/>
    </g>
  </g>
</svg>
