{
    "name": "HandymanServicesBooking",
    "alias": "handymanservicesbooking",
    "description": "",
    "keywords": [],
    "order": 0,
    "providers": [
        "Modules\\HandymanServicesBooking\\Providers\\HandymanServicesBookingServiceProvider"
    ],
    "aliases": {},
    "files": [],
    "requires": []
}
